%!PS-Adobe-3.0 EPSF-3.0
%%Title: /home/victor/Bayesian SWE/haute_résolution/plain_optimization_dim8_15nfev.eps
%%Creator: matplotlib version 2.1.2, http://matplotlib.org/
%%CreationDate: Mon Jun 18 17:12:11 2018
%%Orientation: portrait
%%BoundingBox: 75 223 536 568
%%EndComments
%%BeginProlog
/mpldict 9 dict def
mpldict begin
/m { moveto } bind def
/l { lineto } bind def
/r { rlineto } bind def
/c { curveto } bind def
/cl { closepath } bind def
/box {
m
1 index 0 r
0 exch r
neg 0 r
cl
} bind def
/clipbox {
box
clip
newpath
} bind def
%!PS-Adobe-3.0 Resource-Font
%%Title: DejaVu Sans
%%Copyright: Copyright (c) 2003 by Bitstream, Inc. All Rights Reserved. Copyright (c) 2006 by Tavmjong Bah. All Rights Reserved. DejaVu changes are in public domain 
%%Creator: Converted from TrueType to type 3 by PPR
25 dict begin
/_d{bind def}bind def
/_m{moveto}_d
/_l{lineto}_d
/_cl{closepath eofill}_d
/_c{curveto}_d
/_sc{7 -1 roll{setcachedevice}{pop pop pop pop pop pop}ifelse}_d
/_e{exec}_d
/FontName /DejaVuSans def
/PaintType 0 def
/FontMatrix[.001 0 0 .001 0 0]def
/FontBBox[-1021 -463 1793 1232]def
/FontType 3 def
/Encoding [ /space /comma /period /zero /one /two /three /four /five /six /eight /equal /K /O /a /b /c /d /e /f /g /i /j /l /m /n /o /p /r /s /t /u /z ] def
/FontInfo 10 dict dup begin
/FamilyName (DejaVu Sans) def
/FullName (DejaVu Sans) def
/Notice (Copyright (c) 2003 by Bitstream, Inc. All Rights Reserved. Copyright (c) 2006 by Tavmjong Bah. All Rights Reserved. DejaVu changes are in public domain ) def
/Weight (Book) def
/Version (Version 2.35) def
/ItalicAngle 0.0 def
/isFixedPitch false def
/UnderlinePosition -130 def
/UnderlineThickness 90 def
end readonly def
/CharStrings 34 dict dup begin
/.notdef 0 def
/space{318 0 0 0 0 0 _sc
}_d
/comma{318 0 77 -115 220 124 _sc
117 124 _m
220 124 _l
220 40 _l
140 -115 _l
77 -115 _l
117 40 _l
117 124 _l
_cl}_d
/period{318 0 107 0 210 124 _sc
107 124 _m
210 124 _l
210 0 _l
107 0 _l
107 124 _l
_cl}_d
/zero{636 0 66 -13 570 742 _sc
318 664 _m
267 664 229 639 203 589 _c
177 539 165 464 165 364 _c
165 264 177 189 203 139 _c
229 89 267 64 318 64 _c
369 64 407 89 433 139 _c
458 189 471 264 471 364 _c
471 464 458 539 433 589 _c
407 639 369 664 318 664 _c
318 742 _m
399 742 461 709 505 645 _c
548 580 570 486 570 364 _c
570 241 548 147 505 83 _c
461 19 399 -13 318 -13 _c
236 -13 173 19 130 83 _c
87 147 66 241 66 364 _c
66 486 87 580 130 645 _c
173 709 236 742 318 742 _c
_cl}_d
/one{636 0 110 0 544 729 _sc
124 83 _m
285 83 _l
285 639 _l
110 604 _l
110 694 _l
284 729 _l
383 729 _l
383 83 _l
544 83 _l
544 0 _l
124 0 _l
124 83 _l
_cl}_d
/two{{636 0 73 0 536 742 _sc
192 83 _m
536 83 _l
536 0 _l
73 0 _l
73 83 _l
110 121 161 173 226 239 _c
290 304 331 346 348 365 _c
380 400 402 430 414 455 _c
426 479 433 504 433 528 _c
433 566 419 598 392 622 _c
365 646 330 659 286 659 _c
255 659 222 653 188 643 _c
154 632 117 616 78 594 _c
78 694 _l
118 710 155 722 189 730 _c
223 738 255 742 284 742 _c
}_e{359 742 419 723 464 685 _c
509 647 532 597 532 534 _c
532 504 526 475 515 449 _c
504 422 484 390 454 354 _c
446 344 420 317 376 272 _c
332 227 271 164 192 83 _c
_cl}_e}_d
/three{{636 0 76 -13 556 742 _sc
406 393 _m
453 383 490 362 516 330 _c
542 298 556 258 556 212 _c
556 140 531 84 482 45 _c
432 6 362 -13 271 -13 _c
240 -13 208 -10 176 -4 _c
144 1 110 10 76 22 _c
76 117 _l
103 101 133 89 166 81 _c
198 73 232 69 268 69 _c
330 69 377 81 409 105 _c
441 129 458 165 458 212 _c
458 254 443 288 413 312 _c
383 336 341 349 287 349 _c
}_e{202 349 _l
202 430 _l
291 430 _l
339 430 376 439 402 459 _c
428 478 441 506 441 543 _c
441 580 427 609 401 629 _c
374 649 336 659 287 659 _c
260 659 231 656 200 650 _c
169 644 135 635 98 623 _c
98 711 _l
135 721 170 729 203 734 _c
235 739 266 742 296 742 _c
370 742 429 725 473 691 _c
517 657 539 611 539 553 _c
539 513 527 479 504 451 _c
481 423 448 403 406 393 _c
_cl}_e}_d
/four{636 0 49 0 580 729 _sc
378 643 _m
129 254 _l
378 254 _l
378 643 _l
352 729 _m
476 729 _l
476 254 _l
580 254 _l
580 172 _l
476 172 _l
476 0 _l
378 0 _l
378 172 _l
49 172 _l
49 267 _l
352 729 _l
_cl}_d
/five{{636 0 77 -13 549 729 _sc
108 729 _m
495 729 _l
495 646 _l
198 646 _l
198 467 _l
212 472 227 476 241 478 _c
255 480 270 482 284 482 _c
365 482 429 459 477 415 _c
525 370 549 310 549 234 _c
549 155 524 94 475 51 _c
426 8 357 -13 269 -13 _c
238 -13 207 -10 175 -6 _c
143 -1 111 6 77 17 _c
77 116 _l
106 100 136 88 168 80 _c
199 72 232 69 267 69 _c
}_e{323 69 368 83 401 113 _c
433 143 450 183 450 234 _c
450 284 433 324 401 354 _c
368 384 323 399 267 399 _c
241 399 214 396 188 390 _c
162 384 135 375 108 363 _c
108 729 _l
_cl}_e}_d
/six{{636 0 70 -13 573 742 _sc
330 404 _m
286 404 251 388 225 358 _c
199 328 186 286 186 234 _c
186 181 199 139 225 109 _c
251 79 286 64 330 64 _c
374 64 409 79 435 109 _c
461 139 474 181 474 234 _c
474 286 461 328 435 358 _c
409 388 374 404 330 404 _c
526 713 _m
526 623 _l
501 635 476 644 451 650 _c
425 656 400 659 376 659 _c
310 659 260 637 226 593 _c
}_e{192 549 172 482 168 394 _c
187 422 211 444 240 459 _c
269 474 301 482 336 482 _c
409 482 467 459 509 415 _c
551 371 573 310 573 234 _c
573 159 550 99 506 54 _c
462 9 403 -13 330 -13 _c
246 -13 181 19 137 83 _c
92 147 70 241 70 364 _c
70 479 97 571 152 639 _c
206 707 280 742 372 742 _c
396 742 421 739 447 735 _c
472 730 498 723 526 713 _c
_cl}_e}_d
/eight{{636 0 68 -13 568 742 _sc
318 346 _m
271 346 234 333 207 308 _c
180 283 167 249 167 205 _c
167 161 180 126 207 101 _c
234 76 271 64 318 64 _c
364 64 401 76 428 102 _c
455 127 469 161 469 205 _c
469 249 455 283 429 308 _c
402 333 365 346 318 346 _c
219 388 _m
177 398 144 418 120 447 _c
96 476 85 511 85 553 _c
85 611 105 657 147 691 _c
188 725 245 742 318 742 _c
}_e{390 742 447 725 489 691 _c
530 657 551 611 551 553 _c
551 511 539 476 515 447 _c
491 418 459 398 417 388 _c
464 377 501 355 528 323 _c
554 291 568 251 568 205 _c
568 134 546 80 503 43 _c
459 5 398 -13 318 -13 _c
237 -13 175 5 132 43 _c
89 80 68 134 68 205 _c
68 251 81 291 108 323 _c
134 355 171 377 219 388 _c
183 544 _m
183 506 194 476 218 455 _c
}_e{242 434 275 424 318 424 _c
360 424 393 434 417 455 _c
441 476 453 506 453 544 _c
453 582 441 611 417 632 _c
393 653 360 664 318 664 _c
275 664 242 653 218 632 _c
194 611 183 582 183 544 _c
_cl}_e}_d
/equal{838 0 106 172 732 454 _sc
106 454 _m
732 454 _l
732 372 _l
106 372 _l
106 454 _l
106 255 _m
732 255 _l
732 172 _l
106 172 _l
106 255 _l
_cl}_d
/K{656 0 98 0 677 729 _sc
98 729 _m
197 729 _l
197 421 _l
524 729 _l
651 729 _l
289 389 _l
677 0 _l
547 0 _l
197 351 _l
197 0 _l
98 0 _l
98 729 _l
_cl}_d
/O{787 0 56 -13 731 742 _sc
394 662 _m
322 662 265 635 223 582 _c
181 528 160 456 160 364 _c
160 272 181 199 223 146 _c
265 92 322 66 394 66 _c
465 66 522 92 564 146 _c
606 199 627 272 627 364 _c
627 456 606 528 564 582 _c
522 635 465 662 394 662 _c
394 742 _m
496 742 577 707 639 639 _c
700 571 731 479 731 364 _c
731 248 700 157 639 89 _c
577 21 496 -13 394 -13 _c
291 -13 209 21 148 89 _c
86 157 56 248 56 364 _c
56 479 86 571 148 639 _c
209 707 291 742 394 742 _c
_cl}_d
/a{{613 0 60 -13 522 560 _sc
343 275 _m
270 275 220 266 192 250 _c
164 233 150 205 150 165 _c
150 133 160 107 181 89 _c
202 70 231 61 267 61 _c
317 61 357 78 387 114 _c
417 149 432 196 432 255 _c
432 275 _l
343 275 _l
522 312 _m
522 0 _l
432 0 _l
432 83 _l
411 49 385 25 355 10 _c
325 -5 287 -13 243 -13 _c
187 -13 142 2 109 33 _c
76 64 60 106 60 159 _c
}_e{60 220 80 266 122 298 _c
163 329 224 345 306 345 _c
432 345 _l
432 354 _l
432 395 418 427 391 450 _c
364 472 326 484 277 484 _c
245 484 215 480 185 472 _c
155 464 127 453 100 439 _c
100 522 _l
132 534 164 544 195 550 _c
226 556 256 560 286 560 _c
365 560 424 539 463 498 _c
502 457 522 395 522 312 _c
_cl}_e}_d
/b{{635 0 91 -13 580 760 _sc
487 273 _m
487 339 473 390 446 428 _c
418 466 381 485 334 485 _c
286 485 249 466 222 428 _c
194 390 181 339 181 273 _c
181 207 194 155 222 117 _c
249 79 286 61 334 61 _c
381 61 418 79 446 117 _c
473 155 487 207 487 273 _c
181 464 _m
199 496 223 520 252 536 _c
281 552 316 560 356 560 _c
422 560 476 533 518 481 _c
559 428 580 359 580 273 _c
}_e{580 187 559 117 518 65 _c
476 13 422 -13 356 -13 _c
316 -13 281 -5 252 10 _c
223 25 199 49 181 82 _c
181 0 _l
91 0 _l
91 760 _l
181 760 _l
181 464 _l
_cl}_e}_d
/c{{550 0 55 -13 488 560 _sc
488 526 _m
488 442 _l
462 456 437 466 411 473 _c
385 480 360 484 334 484 _c
276 484 230 465 198 428 _c
166 391 150 339 150 273 _c
150 206 166 154 198 117 _c
230 80 276 62 334 62 _c
360 62 385 65 411 72 _c
437 79 462 90 488 104 _c
488 21 _l
462 9 436 0 410 -5 _c
383 -10 354 -13 324 -13 _c
242 -13 176 12 128 64 _c
}_e{79 115 55 185 55 273 _c
55 362 79 432 128 483 _c
177 534 244 560 330 560 _c
358 560 385 557 411 551 _c
437 545 463 537 488 526 _c
_cl}_e}_d
/d{{635 0 55 -13 544 760 _sc
454 464 _m
454 760 _l
544 760 _l
544 0 _l
454 0 _l
454 82 _l
435 49 411 25 382 10 _c
353 -5 319 -13 279 -13 _c
213 -13 159 13 117 65 _c
75 117 55 187 55 273 _c
55 359 75 428 117 481 _c
159 533 213 560 279 560 _c
319 560 353 552 382 536 _c
411 520 435 496 454 464 _c
148 273 _m
148 207 161 155 188 117 _c
215 79 253 61 301 61 _c
}_e{348 61 385 79 413 117 _c
440 155 454 207 454 273 _c
454 339 440 390 413 428 _c
385 466 348 485 301 485 _c
253 485 215 466 188 428 _c
161 390 148 339 148 273 _c
_cl}_e}_d
/e{{615 0 55 -13 562 560 _sc
562 296 _m
562 252 _l
149 252 _l
153 190 171 142 205 110 _c
238 78 284 62 344 62 _c
378 62 412 66 444 74 _c
476 82 509 95 541 113 _c
541 28 _l
509 14 476 3 442 -3 _c
408 -9 373 -13 339 -13 _c
251 -13 182 12 131 62 _c
80 112 55 181 55 268 _c
55 357 79 428 127 481 _c
175 533 241 560 323 560 _c
397 560 455 536 498 489 _c
}_e{540 441 562 377 562 296 _c
472 322 _m
471 371 457 410 431 440 _c
404 469 368 484 324 484 _c
274 484 234 469 204 441 _c
174 413 156 373 152 322 _c
472 322 _l
_cl}_e}_d
/f{352 0 23 0 371 760 _sc
371 760 _m
371 685 _l
285 685 _l
253 685 230 678 218 665 _c
205 652 199 629 199 595 _c
199 547 _l
347 547 _l
347 477 _l
199 477 _l
199 0 _l
109 0 _l
109 477 _l
23 477 _l
23 547 _l
109 547 _l
109 585 _l
109 645 123 690 151 718 _c
179 746 224 760 286 760 _c
371 760 _l
_cl}_d
/g{{635 0 55 -207 544 560 _sc
454 280 _m
454 344 440 395 414 431 _c
387 467 349 485 301 485 _c
253 485 215 467 188 431 _c
161 395 148 344 148 280 _c
148 215 161 165 188 129 _c
215 93 253 75 301 75 _c
349 75 387 93 414 129 _c
440 165 454 215 454 280 _c
544 68 _m
544 -24 523 -93 482 -139 _c
440 -184 377 -207 292 -207 _c
260 -207 231 -204 203 -200 _c
175 -195 147 -188 121 -178 _c
}_e{121 -91 _l
147 -105 173 -115 199 -122 _c
225 -129 251 -133 278 -133 _c
336 -133 380 -117 410 -87 _c
439 -56 454 -10 454 52 _c
454 96 _l
435 64 411 40 382 24 _c
353 8 319 0 279 0 _c
211 0 157 25 116 76 _c
75 127 55 195 55 280 _c
55 364 75 432 116 483 _c
157 534 211 560 279 560 _c
319 560 353 552 382 536 _c
411 520 435 496 454 464 _c
454 547 _l
544 547 _l
}_e{544 68 _l
_cl}_e}_d
/i{278 0 94 0 184 760 _sc
94 547 _m
184 547 _l
184 0 _l
94 0 _l
94 547 _l
94 760 _m
184 760 _l
184 646 _l
94 646 _l
94 760 _l
_cl}_d
/j{278 0 -17 -207 184 760 _sc
94 547 _m
184 547 _l
184 -9 _l
184 -78 170 -128 144 -160 _c
117 -191 74 -207 16 -207 _c
-17 -207 _l
-17 -131 _l
6 -131 _l
40 -131 63 -123 75 -107 _c
87 -91 94 -58 94 -9 _c
94 547 _l
94 760 _m
184 760 _l
184 646 _l
94 646 _l
94 760 _l
_cl}_d
/l{278 0 94 0 184 760 _sc
94 760 _m
184 760 _l
184 0 _l
94 0 _l
94 760 _l
_cl}_d
/m{{974 0 91 0 889 560 _sc
520 442 _m
542 482 569 511 600 531 _c
631 550 668 560 711 560 _c
767 560 811 540 842 500 _c
873 460 889 403 889 330 _c
889 0 _l
799 0 _l
799 327 _l
799 379 789 418 771 444 _c
752 469 724 482 686 482 _c
639 482 602 466 575 435 _c
548 404 535 362 535 309 _c
535 0 _l
445 0 _l
445 327 _l
445 379 435 418 417 444 _c
398 469 369 482 331 482 _c
}_e{285 482 248 466 221 435 _c
194 404 181 362 181 309 _c
181 0 _l
91 0 _l
91 547 _l
181 547 _l
181 462 _l
201 495 226 520 255 536 _c
283 552 317 560 357 560 _c
397 560 430 550 458 530 _c
486 510 506 480 520 442 _c
_cl}_e}_d
/n{634 0 91 0 549 560 _sc
549 330 _m
549 0 _l
459 0 _l
459 327 _l
459 379 448 417 428 443 _c
408 469 378 482 338 482 _c
289 482 251 466 223 435 _c
195 404 181 362 181 309 _c
181 0 _l
91 0 _l
91 547 _l
181 547 _l
181 462 _l
202 494 227 519 257 535 _c
286 551 320 560 358 560 _c
420 560 468 540 500 501 _c
532 462 549 405 549 330 _c
_cl}_d
/o{612 0 55 -13 557 560 _sc
306 484 _m
258 484 220 465 192 427 _c
164 389 150 338 150 273 _c
150 207 163 156 191 118 _c
219 80 257 62 306 62 _c
354 62 392 80 420 118 _c
448 156 462 207 462 273 _c
462 337 448 389 420 427 _c
392 465 354 484 306 484 _c
306 560 _m
384 560 445 534 490 484 _c
534 433 557 363 557 273 _c
557 183 534 113 490 63 _c
445 12 384 -13 306 -13 _c
227 -13 165 12 121 63 _c
77 113 55 183 55 273 _c
55 363 77 433 121 484 _c
165 534 227 560 306 560 _c
_cl}_d
/p{{635 0 91 -207 580 560 _sc
181 82 _m
181 -207 _l
91 -207 _l
91 547 _l
181 547 _l
181 464 _l
199 496 223 520 252 536 _c
281 552 316 560 356 560 _c
422 560 476 533 518 481 _c
559 428 580 359 580 273 _c
580 187 559 117 518 65 _c
476 13 422 -13 356 -13 _c
316 -13 281 -5 252 10 _c
223 25 199 49 181 82 _c
487 273 _m
487 339 473 390 446 428 _c
418 466 381 485 334 485 _c
}_e{286 485 249 466 222 428 _c
194 390 181 339 181 273 _c
181 207 194 155 222 117 _c
249 79 286 61 334 61 _c
381 61 418 79 446 117 _c
473 155 487 207 487 273 _c
_cl}_e}_d
/r{411 0 91 0 411 560 _sc
411 463 _m
401 469 390 473 378 476 _c
366 478 353 480 339 480 _c
288 480 249 463 222 430 _c
194 397 181 350 181 288 _c
181 0 _l
91 0 _l
91 547 _l
181 547 _l
181 462 _l
199 495 224 520 254 536 _c
284 552 321 560 365 560 _c
371 560 378 559 386 559 _c
393 558 401 557 411 555 _c
411 463 _l
_cl}_d
/s{{521 0 54 -13 472 560 _sc
443 531 _m
443 446 _l
417 458 391 468 364 475 _c
336 481 308 485 279 485 _c
234 485 200 478 178 464 _c
156 450 145 430 145 403 _c
145 382 153 366 169 354 _c
185 342 217 330 265 320 _c
296 313 _l
360 299 405 279 432 255 _c
458 230 472 195 472 151 _c
472 100 452 60 412 31 _c
372 1 316 -13 246 -13 _c
216 -13 186 -10 154 -5 _c
}_e{122 0 89 8 54 20 _c
54 113 _l
87 95 120 82 152 74 _c
184 65 216 61 248 61 _c
290 61 323 68 346 82 _c
368 96 380 117 380 144 _c
380 168 371 187 355 200 _c
339 213 303 226 247 238 _c
216 245 _l
160 257 119 275 95 299 _c
70 323 58 356 58 399 _c
58 450 76 490 112 518 _c
148 546 200 560 268 560 _c
301 560 332 557 362 552 _c
391 547 418 540 443 531 _c
}_e{_cl}_e}_d
/t{392 0 27 0 368 702 _sc
183 702 _m
183 547 _l
368 547 _l
368 477 _l
183 477 _l
183 180 _l
183 135 189 106 201 94 _c
213 81 238 75 276 75 _c
368 75 _l
368 0 _l
276 0 _l
206 0 158 13 132 39 _c
106 65 93 112 93 180 _c
93 477 _l
27 477 _l
27 547 _l
93 547 _l
93 702 _l
183 702 _l
_cl}_d
/u{634 0 85 -13 543 560 _sc
85 216 _m
85 547 _l
175 547 _l
175 219 _l
175 167 185 129 205 103 _c
225 77 255 64 296 64 _c
344 64 383 79 411 110 _c
439 141 453 183 453 237 _c
453 547 _l
543 547 _l
543 0 _l
453 0 _l
453 84 _l
431 50 405 26 377 10 _c
348 -5 315 -13 277 -13 _c
214 -13 166 6 134 45 _c
101 83 85 140 85 216 _c
311 560 _m
311 560 _l
_cl}_d
/z{525 0 43 0 482 547 _sc
55 547 _m
482 547 _l
482 465 _l
144 72 _l
482 72 _l
482 0 _l
43 0 _l
43 82 _l
381 475 _l
55 475 _l
55 547 _l
_cl}_d
end readonly def

/BuildGlyph
 {exch begin
 CharStrings exch
 2 copy known not{pop /.notdef}if
 true 3 1 roll get exec
 end}_d

/BuildChar {
 1 index /Encoding get exch get
 1 index /BuildGlyph get exec
}_d

FontName currentdict end definefont pop
%!PS-Adobe-3.0 Resource-Font
%%Title: STIXNonUnicode-Italic
%%Copyright: Copyright (c) 2001-2010 by the STI Pub Companies, consisting of the American Chemical Society, the American Institute of Physics, the American Mathematical Society, the American Physical Society, Elsevier, Inc., and The Institute of Electrical and Electronic Engineers, Inc. Portions copyright (c) 1998-2003 by MicroPress, Inc. Portions copyright (c) 1990 by Elsevier, Inc. All rights reserved.
%%Creator: Converted from TrueType to type 3 by PPR
25 dict begin
/_d{bind def}bind def
/_m{moveto}_d
/_l{lineto}_d
/_cl{closepath eofill}_d
/_c{curveto}_d
/_sc{7 -1 roll{setcachedevice}{pop pop pop pop pop pop}ifelse}_d
/_e{exec}_d
/FontName /STIXNonUnicode-Italic def
/PaintType 0 def
/FontMatrix[.001 0 0 .001 0 0]def
/FontBBox[-141 -240 1128 795]def
/FontType 3 def
/Encoding [ /uniE237 ] def
/FontInfo 10 dict dup begin
/FamilyName (STIXNonUnicode) def
/FullName (STIXNonUnicode-Italic) def
/Notice (Copyright (c) 2001-2010 by the STI Pub Companies, consisting of the American Chemical Society, the American Institute of Physics, the American Mathematical Society, the American Physical Society, Elsevier, Inc., and The Institute of Electrical and Electronic Engineers, Inc. Portions copyright (c) 1998-2003 by MicroPress, Inc. Portions copyright (c) 1990 by Elsevier, Inc. All rights reserved. STIX Fonts(TM) is a trademark of The Institute of Electrical and Electronics Engineers, Inc.) def
/Weight (Italic) def
/Version (Version 1.0.0) def
/ItalicAngle -17.43909 def
/isFixedPitch false def
/UnderlinePosition -107 def
/UnderlineThickness 53 def
end readonly def
/CharStrings 2 dict dup begin
/.notdef 0 def
/uniE237{{809 0 30 -12 783 670 _sc
308 449 _m
314 446 _l
368 506 427 558 491 603 _c
555 647 614 670 668 670 _c
704 670 732 660 752 641 _c
772 622 783 597 783 566 _c
783 538 775 513 760 493 _c
744 473 725 463 701 463 _c
686 463 674 468 665 478 _c
655 488 651 500 651 514 _c
651 526 653 536 659 544 _c
665 551 671 556 678 558 _c
685 560 691 564 697 570 _c
703 575 706 582 706 591 _c
}_e{706 601 702 610 694 618 _c
686 626 675 630 661 630 _c
615 630 563 609 505 568 _c
447 526 389 471 331 401 _c
353 299 391 215 443 150 _c
495 84 550 52 610 52 _c
632 52 657 58 683 72 _c
709 86 729 104 745 126 _c
765 110 _l
747 86 730 66 714 51 _c
698 35 675 21 645 8 _c
615 -5 581 -12 545 -12 _c
482 -12 424 17 370 75 _c
316 133 281 197 264 267 _c
224 127 _l
}_e{208 69 188 34 164 20 _c
140 6 95 0 30 0 _c
37 24 _l
57 24 73 35 87 58 _c
100 81 116 124 134 187 _c
237 549 _l
239 557 241 564 241 572 _c
241 592 225 602 194 602 _c
186 602 180 601 176 601 _c
181 626 _l
256 634 318 646 368 662 _c
308 449 _l
_cl}_e}_d
end readonly def

/BuildGlyph
 {exch begin
 CharStrings exch
 2 copy known not{pop /.notdef}if
 true 3 1 roll get exec
 end}_d

/BuildChar {
 1 index /Encoding get exch get
 1 index /BuildGlyph get exec
}_d

FontName currentdict end definefont pop
end
%%EndProlog
mpldict begin
75.6 223.2 translate
460.8 345.6 0 0 clipbox
gsave
0 0 m
460.8 0 l
460.8 345.6 l
0 345.6 l
cl
1.000 setgray
fill
grestore
gsave
57.6 38.016 m
414.72 38.016 l
414.72 304.128 l
57.6 304.128 l
cl
1.000 setgray
fill
grestore
0.800 setlinewidth
1 setlinejoin
2 setlinecap
[] 0 setdash
0.690 setgray
gsave
357.1 266.1 57.6 38.02 clipbox
71.360738 38.016 m
71.360738 304.128 l
stroke
grestore
0 setlinecap
0.000 setgray
gsave
/o {
gsave
newpath
translate
0.8 setlinewidth
1 setlinejoin
0 setlinecap
0 0 m
0 -3.5 l

gsave
0.000 setgray
fill
grestore
stroke
grestore
} bind def
71.3607 38.016 o
grestore
/DejaVuSans findfont
10.000 scalefont
setfont
gsave
68.181051 23.422250 translate
0.000000 rotate
0.000000 0.000000 m /zero glyphshow
grestore
2 setlinecap
0.690 setgray
gsave
357.1 266.1 57.6 38.02 clipbox
137.280443 38.016 m
137.280443 304.128 l
stroke
grestore
0 setlinecap
0.000 setgray
gsave
/o {
gsave
newpath
translate
0.8 setlinewidth
1 setlinejoin
0 setlinecap
0 0 m
0 -3.5 l

gsave
0.000 setgray
fill
grestore
stroke
grestore
} bind def
137.28 38.016 o
grestore
gsave
130.921068 23.422250 translate
0.000000 rotate
0.000000 0.000000 m /two glyphshow
6.362305 0.000000 m /zero glyphshow
grestore
2 setlinecap
0.690 setgray
gsave
357.1 266.1 57.6 38.02 clipbox
203.200148 38.016 m
203.200148 304.128 l
stroke
grestore
0 setlinecap
0.000 setgray
gsave
/o {
gsave
newpath
translate
0.8 setlinewidth
1 setlinejoin
0 setlinecap
0 0 m
0 -3.5 l

gsave
0.000 setgray
fill
grestore
stroke
grestore
} bind def
203.2 38.016 o
grestore
gsave
196.840773 23.422250 translate
0.000000 rotate
0.000000 0.000000 m /four glyphshow
6.362305 0.000000 m /zero glyphshow
grestore
2 setlinecap
0.690 setgray
gsave
357.1 266.1 57.6 38.02 clipbox
269.119852 38.016 m
269.119852 304.128 l
stroke
grestore
0 setlinecap
0.000 setgray
gsave
/o {
gsave
newpath
translate
0.8 setlinewidth
1 setlinejoin
0 setlinecap
0 0 m
0 -3.5 l

gsave
0.000 setgray
fill
grestore
stroke
grestore
} bind def
269.12 38.016 o
grestore
gsave
262.760477 23.422250 translate
0.000000 rotate
0.000000 0.000000 m /six glyphshow
6.362305 0.000000 m /zero glyphshow
grestore
2 setlinecap
0.690 setgray
gsave
357.1 266.1 57.6 38.02 clipbox
335.039557 38.016 m
335.039557 304.128 l
stroke
grestore
0 setlinecap
0.000 setgray
gsave
/o {
gsave
newpath
translate
0.8 setlinewidth
1 setlinejoin
0 setlinecap
0 0 m
0 -3.5 l

gsave
0.000 setgray
fill
grestore
stroke
grestore
} bind def
335.04 38.016 o
grestore
gsave
328.680182 23.422250 translate
0.000000 rotate
0.000000 0.000000 m /eight glyphshow
6.362305 0.000000 m /zero glyphshow
grestore
2 setlinecap
0.690 setgray
gsave
357.1 266.1 57.6 38.02 clipbox
400.959262 38.016 m
400.959262 304.128 l
stroke
grestore
0 setlinecap
0.000 setgray
gsave
/o {
gsave
newpath
translate
0.8 setlinewidth
1 setlinejoin
0 setlinecap
0 0 m
0 -3.5 l

gsave
0.000 setgray
fill
grestore
stroke
grestore
} bind def
400.959 38.016 o
grestore
gsave
391.420199 23.422250 translate
0.000000 rotate
0.000000 0.000000 m /one glyphshow
6.362305 0.000000 m /zero glyphshow
12.724609 0.000000 m /zero glyphshow
grestore
2 setlinecap
0.690 setgray
gsave
357.1 266.1 57.6 38.02 clipbox
57.6 50.112 m
414.72 50.112 l
stroke
grestore
0 setlinecap
0.000 setgray
gsave
/o {
gsave
newpath
translate
0.8 setlinewidth
1 setlinejoin
0 setlinecap
0 0 m
-3.5 0 l

gsave
0.000 setgray
fill
grestore
stroke
grestore
} bind def
57.6 50.112 o
grestore
gsave
34.693750 46.315125 translate
0.000000 rotate
0.000000 0.000000 m /zero glyphshow
6.362305 0.000000 m /period glyphshow
9.541016 0.000000 m /zero glyphshow
grestore
2 setlinecap
0.690 setgray
gsave
357.1 266.1 57.6 38.02 clipbox
57.6 107.371165 m
414.72 107.371165 l
stroke
grestore
0 setlinecap
0.000 setgray
gsave
/o {
gsave
newpath
translate
0.8 setlinewidth
1 setlinejoin
0 setlinecap
0 0 m
-3.5 0 l

gsave
0.000 setgray
fill
grestore
stroke
grestore
} bind def
57.6 107.371 o
grestore
gsave
34.693750 103.574290 translate
0.000000 rotate
0.000000 0.000000 m /zero glyphshow
6.362305 0.000000 m /period glyphshow
9.541016 0.000000 m /one glyphshow
grestore
2 setlinecap
0.690 setgray
gsave
357.1 266.1 57.6 38.02 clipbox
57.6 164.630329 m
414.72 164.630329 l
stroke
grestore
0 setlinecap
0.000 setgray
gsave
/o {
gsave
newpath
translate
0.8 setlinewidth
1 setlinejoin
0 setlinecap
0 0 m
-3.5 0 l

gsave
0.000 setgray
fill
grestore
stroke
grestore
} bind def
57.6 164.63 o
grestore
gsave
34.693750 160.833454 translate
0.000000 rotate
0.000000 0.000000 m /zero glyphshow
6.362305 0.000000 m /period glyphshow
9.541016 0.000000 m /two glyphshow
grestore
2 setlinecap
0.690 setgray
gsave
357.1 266.1 57.6 38.02 clipbox
57.6 221.889494 m
414.72 221.889494 l
stroke
grestore
0 setlinecap
0.000 setgray
gsave
/o {
gsave
newpath
translate
0.8 setlinewidth
1 setlinejoin
0 setlinecap
0 0 m
-3.5 0 l

gsave
0.000 setgray
fill
grestore
stroke
grestore
} bind def
57.6 221.889 o
grestore
gsave
34.693750 218.092619 translate
0.000000 rotate
0.000000 0.000000 m /zero glyphshow
6.362305 0.000000 m /period glyphshow
9.541016 0.000000 m /three glyphshow
grestore
2 setlinecap
0.690 setgray
gsave
357.1 266.1 57.6 38.02 clipbox
57.6 279.148659 m
414.72 279.148659 l
stroke
grestore
0 setlinecap
0.000 setgray
gsave
/o {
gsave
newpath
translate
0.8 setlinewidth
1 setlinejoin
0 setlinecap
0 0 m
-3.5 0 l

gsave
0.000 setgray
fill
grestore
stroke
grestore
} bind def
57.6 279.149 o
grestore
gsave
34.693750 275.351784 translate
0.000000 rotate
0.000000 0.000000 m /zero glyphshow
6.362305 0.000000 m /period glyphshow
9.541016 0.000000 m /four glyphshow
grestore
1.500 setlinewidth
[1.5 2.475] 0 setdash
gsave
357.1 266.1 57.6 38.02 clipbox
150.464384 50.112 m
150.464384 279.148659 l
stroke
grestore
gsave
357.1 266.1 57.6 38.02 clipbox
232.864015 50.112 m
232.864015 279.148659 l
stroke
grestore
gsave
357.1 266.1 57.6 38.02 clipbox
315.263646 50.112 m
315.263646 279.148659 l
stroke
grestore
gsave
357.1 266.1 57.6 38.02 clipbox
397.663276 50.112 m
397.663276 279.148659 l
stroke
grestore
2 setlinecap
[] 0 setdash
0.122 0.467 0.706 setrgbcolor
gsave
357.1 266.1 57.6 38.02 clipbox
73.832727 170.024881 m
83.720683 191.364102 l
90.312653 205.109678 l
95.256631 215.011428 l
100.200609 224.465992 l
105.144587 233.38945 l
110.088565 241.702598 l
113.38455 246.868953 l
116.680535 251.71075 l
119.976521 256.20888 l
123.272506 260.345592 l
126.568491 264.104559 l
129.864476 267.470947 l
133.160461 270.43147 l
136.456447 272.974444 l
139.752432 275.089833 l
143.048417 276.769289 l
146.344402 278.006184 l
149.640388 278.795637 l
151.28838 279.021529 l
152.936373 279.134531 l
154.584365 279.134531 l
156.232358 279.021529 l
157.880351 278.795637 l
161.176336 278.006184 l
164.472321 276.769289 l
167.768306 275.089833 l
171.064292 272.974444 l
174.360277 270.43147 l
177.656262 267.470947 l
180.952247 264.104559 l
184.248233 260.345592 l
187.544218 256.20888 l
190.840203 251.71075 l
194.136188 246.868953 l
197.432174 241.702598 l
200.728159 236.232074 l
205.672137 227.503505 l
210.616114 218.21687 l
215.560092 208.454597 l
222.152063 194.84863 l
230.392026 177.196919 l
250.167937 134.412028 l
256.759908 120.806062 l
261.703886 111.043789 l
266.647863 101.757153 l
271.591841 93.028585 l
274.887826 87.558061 l
278.183812 82.391705 l
281.479797 77.549909 l
284.775782 73.051778 l
288.071767 68.915067 l
291.367753 65.156099 l
294.663738 61.789712 l
297.959723 58.829189 l
301.255708 56.286215 l
304.551694 54.170825 l
307.847679 52.491369 l
311.143664 51.254474 l
314.439649 50.465022 l
316.087642 50.23913 l
317.735635 50.126128 l
319.383627 50.126128 l
321.03162 50.23913 l
322.679612 50.465022 l
325.975598 51.254474 l
329.271583 52.491369 l
332.567568 54.170825 l
335.863553 56.286215 l
339.159539 58.829189 l
342.455524 61.789712 l
345.751509 65.156099 l
349.047494 68.915067 l
352.343479 73.051778 l
355.639465 77.549909 l
358.93545 82.391705 l
362.231435 87.558061 l
365.52742 93.028585 l
370.471398 101.757153 l
375.415376 111.043789 l
380.359354 120.806062 l
386.951324 134.412028 l
395.191287 152.063739 l
398.487273 159.235777 l
398.487273 159.235777 l
stroke
grestore
1.000 0.498 0.055 setrgbcolor
gsave
357.1 266.1 57.6 38.02 clipbox
73.832727 231.760718 m
111.736557 231.760718 l
113.38455 229.442252 l
152.936373 229.442252 l
154.584365 292.032 l
194.136188 292.032 l
195.784181 198.342418 l
235.336004 198.342418 l
236.983996 126.373197 l
276.535819 126.373197 l
278.183812 52.625115 l
317.735635 52.625115 l
319.383627 56.006681 l
358.93545 56.006681 l
360.583443 117.291155 l
398.487273 117.291155 l
398.487273 117.291155 l
stroke
grestore
0.173 0.627 0.173 setrgbcolor
gsave
357.1 266.1 57.6 38.02 clipbox
73.832727 235.627072 m
111.736557 235.627072 l
113.38455 231.620914 l
152.936373 231.620914 l
154.584365 285.678653 l
194.136188 285.678653 l
195.784181 199.965285 l
235.336004 199.965285 l
236.983996 126.994702 l
276.535819 126.994702 l
278.183812 52.083199 l
317.735635 52.083199 l
319.383627 56.132668 l
358.93545 56.132668 l
360.583443 117.159702 l
398.487273 117.159702 l
398.487273 117.159702 l
stroke
grestore
0.800 setlinewidth
0 setlinejoin
[] 0 setdash
0.000 setgray
gsave
57.6 38.016 m
57.6 304.128 l
stroke
grestore
gsave
414.72 38.016 m
414.72 304.128 l
stroke
grestore
gsave
57.6 38.016 m
414.72 38.016 l
stroke
grestore
gsave
57.6 304.128 m
414.72 304.128 l
stroke
grestore
gsave
56.660000 310.128000 translate
0.000000 rotate
/DejaVuSans findfont
12.0 scalefont
setfont
0.000000 0.875000 moveto
/O glyphshow

9.445312 0.875000 moveto
/p glyphshow

17.062500 0.875000 moveto
/t glyphshow

21.767578 0.875000 moveto
/i glyphshow

25.101562 0.875000 moveto
/m glyphshow

36.791016 0.875000 moveto
/i glyphshow

40.125000 0.875000 moveto
/z glyphshow

46.423828 0.875000 moveto
/a glyphshow

53.777344 0.875000 moveto
/t glyphshow

58.482422 0.875000 moveto
/i glyphshow

61.816406 0.875000 moveto
/o glyphshow

69.158203 0.875000 moveto
/n glyphshow

76.763672 0.875000 moveto
/space glyphshow

80.578125 0.875000 moveto
/u glyphshow

88.183594 0.875000 moveto
/s glyphshow

94.435547 0.875000 moveto
/i glyphshow

97.769531 0.875000 moveto
/n glyphshow

105.375000 0.875000 moveto
/g glyphshow

112.992188 0.875000 moveto
/space glyphshow

116.806641 0.875000 moveto
/a glyphshow

124.160156 0.875000 moveto
/d glyphshow

131.777344 0.875000 moveto
/j glyphshow

135.111328 0.875000 moveto
/o glyphshow

142.453125 0.875000 moveto
/i glyphshow

145.787109 0.875000 moveto
/n glyphshow

153.392578 0.875000 moveto
/t glyphshow

158.097656 0.875000 moveto
/comma glyphshow

161.912109 0.875000 moveto
/space glyphshow

165.726562 0.875000 moveto
/d glyphshow

173.343750 0.875000 moveto
/i glyphshow

176.677734 0.875000 moveto
/m glyphshow

/STIXNonUnicode-Italic findfont
12.0 scalefont
setfont
188.367188 0.875000 moveto
/uniE237 glyphshow

/DejaVuSans findfont
12.0 scalefont
setfont
198.075180 0.875000 moveto
/equal glyphshow

208.129868 0.875000 moveto
/two glyphshow

215.764633 0.875000 moveto
/zero glyphshow

223.399399 0.875000 moveto
/zero glyphshow

231.034164 0.875000 moveto
/space glyphshow

234.848618 0.875000 moveto
/a glyphshow

242.202133 0.875000 moveto
/n glyphshow

249.807602 0.875000 moveto
/d glyphshow

257.424789 0.875000 moveto
/space glyphshow

261.239243 0.875000 moveto
/n glyphshow

268.844711 0.875000 moveto
/o glyphshow

276.186508 0.875000 moveto
/space glyphshow

280.000961 0.875000 moveto
/u glyphshow

287.606430 0.875000 moveto
/n glyphshow

295.211899 0.875000 moveto
/c glyphshow

301.809555 0.875000 moveto
/e glyphshow

309.192368 0.875000 moveto
/r glyphshow

314.125961 0.875000 moveto
/t glyphshow

318.831039 0.875000 moveto
/a glyphshow

326.184555 0.875000 moveto
/i glyphshow

329.518539 0.875000 moveto
/n glyphshow

337.124008 0.875000 moveto
/t glyphshow

341.829086 0.875000 moveto
/i glyphshow

345.163071 0.875000 moveto
/e glyphshow

352.545883 0.875000 moveto
/s glyphshow


grestore
1.000 setlinewidth
0 setlinecap
0.800 setgray
gsave
231.673125 237.4405 m
407.72 237.4405 l
409.053333 237.4405 409.72 238.107167 409.72 239.4405 c
409.72 297.128 l
409.72 298.461333 409.053333 299.128 407.72 299.128 c
231.673125 299.128 l
230.339792 299.128 229.673125 298.461333 229.673125 297.128 c
229.673125 239.4405 l
229.673125 238.107167 230.339792 237.4405 231.673125 237.4405 c
cl
gsave
1.000 setgray
fill
grestore
stroke
grestore
1.500 setlinewidth
1 setlinejoin
2 setlinecap
[] 0 setdash
0.122 0.467 0.706 setrgbcolor
gsave
233.673125 291.03425 m
253.673125 291.03425 l
stroke
grestore
0.000 setgray
gsave
261.673125 287.534250 translate
0.000000 rotate
0.000000 0.000000 m /K glyphshow
6.557617 0.000000 m /r glyphshow
10.668945 0.000000 m /e glyphshow
16.821289 0.000000 m /f glyphshow
grestore
1.000 0.498 0.055 setrgbcolor
gsave
233.673125 276.362375 m
253.673125 276.362375 l
stroke
grestore
0.000 setgray
gsave
261.673125 272.862375 translate
0.000000 rotate
0.000000 0.000000 m /o glyphshow
6.118164 0.000000 m /p glyphshow
12.465820 0.000000 m /t glyphshow
16.386719 0.000000 m /i glyphshow
19.165039 0.000000 m /m glyphshow
28.906250 0.000000 m /i glyphshow
31.684570 0.000000 m /z glyphshow
36.933594 0.000000 m /a glyphshow
43.061523 0.000000 m /t glyphshow
46.982422 0.000000 m /i glyphshow
49.760742 0.000000 m /o glyphshow
55.878906 0.000000 m /n glyphshow
62.216797 0.000000 m /space glyphshow
65.395508 0.000000 m /r glyphshow
69.506836 0.000000 m /e glyphshow
75.659180 0.000000 m /s glyphshow
80.869141 0.000000 m /u glyphshow
87.207031 0.000000 m /l glyphshow
89.985352 0.000000 m /t glyphshow
grestore
0.173 0.627 0.173 setrgbcolor
gsave
233.673125 261.6905 m
253.673125 261.6905 l
stroke
grestore
0.000 setgray
gsave
261.673125 258.190500 translate
0.000000 rotate
0.000000 0.000000 m /o glyphshow
6.118164 0.000000 m /p glyphshow
12.465820 0.000000 m /t glyphshow
16.386719 0.000000 m /i glyphshow
19.165039 0.000000 m /m glyphshow
28.906250 0.000000 m /i glyphshow
31.684570 0.000000 m /z glyphshow
36.933594 0.000000 m /a glyphshow
43.061523 0.000000 m /t glyphshow
46.982422 0.000000 m /i glyphshow
49.760742 0.000000 m /o glyphshow
55.878906 0.000000 m /n glyphshow
62.216797 0.000000 m /space glyphshow
65.395508 0.000000 m /r glyphshow
69.506836 0.000000 m /e glyphshow
75.659180 0.000000 m /s glyphshow
80.869141 0.000000 m /u glyphshow
87.207031 0.000000 m /l glyphshow
89.985352 0.000000 m /t glyphshow
93.906250 0.000000 m /space glyphshow
97.084961 0.000000 m /comma glyphshow
100.263672 0.000000 m /space glyphshow
103.442383 0.000000 m /n glyphshow
109.780273 0.000000 m /i glyphshow
112.558594 0.000000 m /t glyphshow
116.479492 0.000000 m /space glyphshow
119.658203 0.000000 m /equal glyphshow
128.037109 0.000000 m /space glyphshow
131.215820 0.000000 m /one glyphshow
137.578125 0.000000 m /five glyphshow
grestore
0 setlinecap
[1.5 2.475] 0 setdash
gsave
233.673125 247.018625 m
253.673125 247.018625 l
stroke
grestore
gsave
261.673125 243.518625 translate
0.000000 rotate
0.000000 0.000000 m /o glyphshow
6.118164 0.000000 m /b glyphshow
12.465820 0.000000 m /s glyphshow
17.675781 0.000000 m /space glyphshow
20.854492 0.000000 m /p glyphshow
27.202148 0.000000 m /o glyphshow
33.320312 0.000000 m /i glyphshow
36.098633 0.000000 m /n glyphshow
42.436523 0.000000 m /t glyphshow
46.357422 0.000000 m /s glyphshow
grestore

end
showpage
